%YAML 1.1
%TAG !u! tag:unity3d.com,2011:
--- !u!114 &11400000
MonoBehaviour:
  m_ObjectHideFlags: 0
  m_CorrespondingSourceObject: {fileID: 0}
  m_PrefabInstance: {fileID: 0}
  m_PrefabAsset: {fileID: 0}
  m_GameObject: {fileID: 0}
  m_Enabled: 1
  m_EditorHideFlags: 0
  m_Script: {fileID: 11500000, guid: 5877d2ff5bf2ca444a291294e84f233a, type: 3}
  m_Name: Heavy
  m_EditorClassIdentifier: 
  serializationData:
    SerializedFormat: 2
    SerializedBytes: 
    ReferencedUnityObjects:
    - {fileID: 11400000, guid: d6bf28dc7abc6f24099ee914344ef6ce, type: 2}
    - {fileID: 11400000, guid: ffb3ad98cc489cb4283cb4b5ceb6e1a9, type: 2}
    - {fileID: 11400000, guid: 1f9cf80088c3a264d8077af186f187d7, type: 2}
    SerializedBytesString: 
    Prefab: {fileID: 0}
    PrefabModificationsReferencedUnityObjects: []
    PrefabModifications: []
    SerializationNodes:
    - Name: list
      Entry: 7
      Data: 0|System.Collections.Generic.Dictionary`2[[Saucy.Modules.Damageable.DataDamageType,
        com.saucy.modules.damageable],[Saucy.Data.Structs.RangedFloat, com.saucy.data.structs]],
        mscorlib
    - Name: comparer
      Entry: 7
      Data: 1|System.Collections.Generic.ObjectEqualityComparer`1[[Saucy.Modules.Damageable.DataDamageType,
        com.saucy.modules.damageable]], mscorlib
    - Name: 
      Entry: 8
      Data: 
    - Name: 
      Entry: 12
      Data: 3
    - Name: 
      Entry: 7
      Data: 
    - Name: $k
      Entry: 10
      Data: 0
    - Name: $v
      Entry: 7
      Data: Saucy.Data.Structs.RangedFloat, com.saucy.data.structs
    - Name: Value
      Entry: 4
      Data: 0.5
    - Name: 
      Entry: 8
      Data: 
    - Name: 
      Entry: 8
      Data: 
    - Name: 
      Entry: 7
      Data: 
    - Name: $k
      Entry: 10
      Data: 1
    - Name: $v
      Entry: 7
      Data: Saucy.Data.Structs.RangedFloat, com.saucy.data.structs
    - Name: Value
      Entry: 4
      Data: 0.5
    - Name: 
      Entry: 8
      Data: 
    - Name: 
      Entry: 8
      Data: 
    - Name: 
      Entry: 7
      Data: 
    - Name: $k
      Entry: 10
      Data: 2
    - Name: $v
      Entry: 7
      Data: Saucy.Data.Structs.RangedFloat, com.saucy.data.structs
    - Name: Value
      Entry: 4
      Data: 1.5
    - Name: 
      Entry: 8
      Data: 
    - Name: 
      Entry: 8
      Data: 
    - Name: 
      Entry: 13
      Data: 
    - Name: 
      Entry: 8
      Data: 
